%YAML 1.1
%TAG !u! tag:unity3d.com,2011:
--- !u!21 &2100000
Material:
  serializedVersion: 6
  m_ObjectHideFlags: 0
  m_PrefabParentObject: {fileID: 0}
  m_PrefabInternal: {fileID: 0}
  m_Name: New Material
  m_Shader: {fileID: 4800000, guid: d5b4705d2a437234995f4a02c23adf3f, type: 3}
  m_ShaderKeywords: 
  m_LightmapFlags: 5
  m_CustomRenderQueue: 2000
  stringTagMap: {}
  m_SavedProperties:
    serializedVersion: 2
    m_TexEnvs:
      data:
        first:
          name: _MainTex
        second:
          m_Texture: {fileID: 2800000, guid: 7dbe45ed4c9ee60449bc4a4fd5e262e5, type: 3}
          m_Scale: {x: 1, y: 1}
          m_Offset: {x: 0, y: 0}
      data:
        first:
          name: _BumpMap
        second:
          m_Texture: {fileID: 0}
          m_Scale: {x: 1, y: 1}
          m_Offset: {x: 0, y: 0}
      data:
        first:
          name: _DetailNormalMap
        second:
          m_Texture: {fileID: 0}
          m_Scale: {x: 1, y: 1}
          m_Offset: {x: 0, y: 0}
      data:
        first:
          name: _ParallaxMap
        second:
          m_Texture: {fileID: 0}
          m_Scale: {x: 1, y: 1}
          m_Offset: {x: 0, y: 0}
      data:
        first:
          name: _OcclusionMap
        second:
          m_Texture: {fileID: 0}
          m_Scale: {x: 1, y: 1}
          m_Offset: {x: 0, y: 0}
      data:
        first:
          name: _EmissionMap
        second:
          m_Texture: {fileID: 0}
          m_Scale: {x: 1, y: 1}
          m_Offset: {x: 0, y: 0}
      data:
        first:
          name: _DetailMask
        second:
          m_Texture: {fileID: 0}
          m_Scale: {x: 1, y: 1}
          m_Offset: {x: 0, y: 0}
      data:
        first:
          name: _DetailAlbedoMap
        second:
          m_Texture: {fileID: 0}
          m_Scale: {x: 1, y: 1}
          m_Offset: {x: 0, y: 0}
      data:
        first:
          name: _MetallicGlossMap
        second:
          m_Texture: {fileID: 0}
          m_Scale: {x: 1, y: 1}
          m_Offset: {x: 0, y: 0}
    m_Floats:
      data:
        first:
          name: _SrcBlend
        second: 1
      data:
        first:
          name: _DstBlend
        second: 0
      data:
        first:
          name: _Scale
        second: 53
      data:
        first:
          name: _Cutoff
        second: .5
      data:
        first:
          name: _Parallax
        second: .0199999996
      data:
        first:
          name: _ZWrite
        second: 1
      data:
        first:
          name: _Glossiness
        second: .5
      data:
        first:
          name: _BumpScale
        second: 1
      data:
        first:
          name: _OcclusionStrength
        second: 1
      data:
        first:
          name: _DetailNormalMapScale
        second: 1
      data:
        first:
          name: _UVSec
        second: 0
      data:
        first:
          name: _Mode
        second: 0
      data:
        first:
          name: _Metallic
        second: 0
      data:
        first:
          name: _CameraHeight
        second: 31
      data:
        first:
          name: _CameraHeight2
        second: 35
      data:
        first:
          name: _OuterRadius
        second: 55
      data:
        first:
          name: _OuterRadius2
        second: 13
      data:
        first:
          name: _InnerRadius
        second: 33
      data:
        first:
          name: _InnerRadius2
        second: 35
      data:
        first:
          name: _KrESun
        second: 33
      data:
        first:
          name: _KmESun
        second: 33
      data:
        first:
          name: _Kr4PI
        second: 3
      data:
        first:
          name: _Km4PI
        second: 33
      data:
        first:
          name: _ScaleDepth
        second: 0
      data:
        first:
          name: _ScaleOverScaleDepth
        second: 1
      data:
        first:
          name: _Samples
        second: 53
      data:
        first:
          name: _G
        second: 13
      data:
        first:
          name: _G2
        second: 13
      data:
        first:
          name: _Amount
        second: .0299999993
      data:
        first:
          name: _RimPower
        second: 3
    m_Colors:
      data:
        first:
          name: _LightDir
        second: {r: 0, g: 0, b: 0, a: 0}
      data:
        first:
          name: _EmissionColor
        second: {r: 0, g: 0, b: 0, a: 1}
      data:
        first:
          name: _Color
        second: {r: 1, g: 1, b: 1, a: 1}
      data:
        first:
          name: _CameraPosition
        second: {r: 0, g: 0, b: 0, a: 0}
      data:
        first:
          name: _InvWaveLength
        second: {r: .393382519, g: .295036793, b: .786764741, a: 0}
      data:
        first:
          name: _RimColor
        second: {r: .25999999, g: .189999998, b: .159999996, a: 0}
